<svg xmlns="http://www.w3.org/2000/svg" width="229.32" height="49.309" viewBox="0 0 229.32 49.309">
  <g id="Group_6470" data-name="Group 6470" transform="translate(-4041.1 -5379.9)">
    <path id="Path_482" data-name="Path 482" d="M83.277,292.637c-2.533-1.267-4.433-2.786-2.871-6.29,2.7-5.235,7.852-9.2,55.388-19.546-47.578,14.691-49.478,17.055-38.333,20.728a60.365,60.365,0,0,1,6.924,2.2c8.232,3.293.675,11.483-58.386,26.385,33.6-14.438,46.734-18.786,37.277-23.472" transform="translate(3995.1 5113.1)" fill="#888398"/>
    <g id="Group_6469" data-name="Group 6469" transform="translate(4106.62 5392.649)">
      <path id="Path_483" data-name="Path 483" d="M205.042,297h9.752c5.277,0,8.528,2.533,7.641,8.359-.929,5.995-4.433,8.612-9.963,8.612h-3.588l-1.309,8.443H201.2Zm4.644,11.652h1.055c2.322,0,4.559,0,5.024-3.082.507-3.208-1.6-3.251-4.1-3.251h-1.055Z" transform="translate(-201.2 -297)" fill="#888398"/>
    </g>
    <path id="Path_484" data-name="Path 484" d="M284.227,307.987c-1.267,8.232-7.81,14.016-15.7,14.016-7.852,0-12.665-5.784-11.4-14.016,1.182-7.683,8.486-13.087,15.536-13.087,7.05.042,12.749,5.446,11.567,13.087m-20.475.042c-.676,4.391,1.942,7.6,5.741,7.6s7.388-3.208,8.106-7.6a5.846,5.846,0,0,0-5.91-6.712,8.437,8.437,0,0,0-7.937,6.712" transform="translate(3873.222 5096.863)" fill="#888398"/>
    <path id="Path_485" data-name="Path 485" d="M347.748,322.357h-7.937l-4.517-9.794h-.042l-1.478,9.752H327.4l3.884-25.414h9.5c4.855,0,8.148,2.406,7.346,7.81-.549,3.5-2.871,6.544-6.459,7.177Zm-11.863-14.016h.633c2.069,0,4.475-.422,4.9-3.166s-1.858-3.166-3.926-3.166h-.633Z" transform="translate(3832.498 5095.707)" fill="#888398"/>
    <path id="Path_486" data-name="Path 486" d="M394.512,322.414h-6.375l3.04-19.842H385.9l.844-5.573h16.887l-.844,5.573h-5.235Z" transform="translate(3798.694 5095.649)" fill="#888398"/>
    <path id="Path_487" data-name="Path 487" d="M434.132,322.414H427.8L431.642,297h6.375Z" transform="translate(3774.483 5095.649)" fill="#888398"/>
    <path id="Path_488" data-name="Path 488" d="M482.985,297l-2.2,14.269c-.507,3.251-1.1,6.5-3.926,8.95a12.916,12.916,0,0,1-8.528,2.828c-2.871,0-5.995-.76-7.683-2.828-2.026-2.449-1.689-5.7-1.182-8.95L461.624,297H468l-2.026,13.383c-.507,3.293-.844,6.924,3.251,6.924s4.855-3.588,5.4-6.924L476.653,297Z" transform="translate(3756.406 5095.649)" fill="#888398"/>
    <path id="Path_489" data-name="Path 489" d="M524.121,297h6.29l2.913,13.552,7.3-13.552h6.333l-.169,25.414h-6.332l.422-14.649h-.042l-8.106,14.649H530.2l-3.377-14.649h-.084l-4.306,14.649H516.1Z" transform="translate(3723.46 5095.649)" fill="#888398"/>
  </g>
</svg>
